-0.018 0 -0.018 0 
-0.018 0 -0.018 0 
-0.018 0 -0.018 0 
-0.018 0 -0.018 0 
-0.018 0 -0.018 0 
-0.018 0 -0.018 0 
-0.018 0 -0.018 0 
-0.018 0 -0.018 0 
-0.018 0 -0.018 0 
-0.018 0 -0.018 0 
-0.018 0 -0.018 0 
-0.018 0 -0.018 0 
-0.018 0 -0.018 0 
-0.018 0 -0.018 0 
-0.018 0 -0.018 0 
-0.018 0 -0.018 0 
-0.018 0 -0.018 0 
-0.018 0 -0.018 0 
-0.018 0 -0.018 0 
-0.018 0 -0.018 0 
-0.018 0 -0.018 0 
-0.018 0 -0.018 0 
-0.018 0 -0.018 0 
-0.018 0 -0.018 0 
-0.018 0 -0.018 0 
-0.018 0 -0.018 0 
-0.018 0 -0.018 0 
-0.018 0 -0.018 0 
-0.018 0 -0.018 0 
-0.018 0 -0.018 0 
-0.018 0 -0.018 0 
-0.018 0 -0.018 0 
-0.018 0 -0.018 0 
-0.018 0 -0.018 0 
-0.018 0 -0.018 0 
-0.018 0 -0.018 0 
-0.018 0 -0.018 0 
-0.018 0 -0.018 0 
-0.018 0 -0.018 0 
-0.018 0 -0.018 0 
-0.018 0 -0.018 0 
-0.018 0 -0.018 0 
-0.018 0 -0.018 0 
-0.018 0 -0.018 0 
-0.018 0 -0.018 0 
-0.018 0 -0.018 0 
-0.018 0 -0.018 0 
-0.018 0 -0.018 0 
-0.018 0 -0.018 0 
-0.018 0 -0.018 0 
-0.018 0 -0.018 0 
-0.018 0 -0.018 0 
-0.018 0 -0.018 0 
-0.018 0 -0.018 0 
-0.018 0 -0.018 0 
-0.018 0 -0.018 0 
-0.018 0 -0.018 0 
-0.018 0 -0.018 0 
-0.018 0 -0.018 0 
-0.018 0 -0.018 0 
-0.018 0 -0.018 0 
-0.018 0 -0.018 0 
-0.018 0 -0.018 0 
-0.018 0 -0.018 0 
-0.018 0 -0.018 0 
-0.018 0 -0.018 0 
-0.018 0 -0.018 0 
-0.018 0 -0.018 0 
-0.018 0 -0.018 0 
-0.018 0 -0.018 0 
-0.018 0 -0.018 0 
-0.018 0 -0.018 0 
-0.018 0 -0.018 0 
-0.018 0 -0.018 0 
-0.018 0 -0.018 0 
-0.018 0 -0.018 0 
-0.018 0 -0.018 0 
-0.018 0 -0.018 0 
-0.018 0 -0.018 0 
-0.018 0 -0.018 0 
-0.018 0 -0.018 0 
-0.018 0 -0.018 0 
-0.018 0 -0.018 0 
-0.018 0 -0.018 0 
-0.018 0 -0.018 0 
-0.018 0 -0.018 0 
-0.018 0 -0.018 0 
-0.018 0 -0.018 0 
-0.018 0 -0.018 0 
-0.018 0 -0.018 0 
-0.018 0 -0.018 0 
-0.018 0 -0.018 0 
-0.018 0 -0.018 0 
-0.018 0 -0.018 0 
-0.018 0 -0.018 0 
-0.018 0 -0.018 0 
-0.018 0 -0.018 0 
-0.018 0 -0.018 0 
-0.018 0 -0.018 0 
-0.018 0 -0.018 0 
